\relax 
\providecommand\hyper@newdestlabel[2]{}
\@nameuse{bbl@beforestart}
\catcode `"\active 
\catcode `<\active 
\catcode `>\active 
\@nameuse{es@quoting}
\providecommand\HyperFirstAtBeginDocument{\AtBeginDocument}
\HyperFirstAtBeginDocument{\ifx\hyper@anchor\@undefined
\global\let\oldcontentsline\contentsline
\gdef\contentsline#1#2#3#4{\oldcontentsline{#1}{#2}{#3}}
\global\let\oldnewlabel\newlabel
\gdef\newlabel#1#2{\newlabelxx{#1}#2}
\gdef\newlabelxx#1#2#3#4#5#6{\oldnewlabel{#1}{{#2}{#3}}}
\AtEndDocument{\ifx\hyper@anchor\@undefined
\let\contentsline\oldcontentsline
\let\newlabel\oldnewlabel
\fi}
\fi}
\global\let\hyper@last\relax 
\gdef\HyperFirstAtBeginDocument#1{#1}
\providecommand\HyField@AuxAddToFields[1]{}
\providecommand\HyField@AuxAddToCoFields[2]{}
\bibstyle{IEEEannot}
\babel@aux{spanish}{}
\pgfsyspdfmark {pgfid1}{12269873}{44582026}
\pgfsyspdfmark {pgfid2}{12680203}{44582026}
\@writefile{toc}{\contentsline {section}{\numberline {1}Resumen}{1}{section.1}\protected@file@percent }
\citation{atmega}
\citation{atmega}
\citation{atmega}
\@writefile{toc}{\contentsline {section}{\numberline {2}Nota teórica}{2}{section.2}\protected@file@percent }
\@writefile{toc}{\contentsline {subsection}{\numberline {2.a}El microcontrolador ATmega328/P}{2}{subsection.2.1}\protected@file@percent }
\@writefile{lof}{\contentsline {figure}{\numberline {1}{\ignorespaces Diagrama de pinout del ATMega328/P. Recuperado de \cite  {atmega}.\relax }}{2}{figure.caption.2}\protected@file@percent }
\providecommand*\caption@xref[2]{\@setref\relax\@undefined{#1}}
\newlabel{fig:mcu_pinout}{{1}{2}{Diagrama de pinout del ATMega328/P. Recuperado de \cite {atmega}.\relax }{figure.caption.2}{}}
\citation{ard_pinout}
\citation{ard_pinout}
\@writefile{toc}{\contentsline {subsection}{\numberline {2.b}Arduino UNO}{3}{subsection.2.2}\protected@file@percent }
\@writefile{lof}{\contentsline {figure}{\numberline {2}{\ignorespaces Diagrama de pinout del Arduino UNO REV3. Recuperado de \cite  {ard_pinout}\relax }}{3}{figure.caption.3}\protected@file@percent }
\newlabel{fig:arduino_pinout}{{2}{3}{Diagrama de pinout del Arduino UNO REV3. Recuperado de \cite {ard_pinout}\relax }{figure.caption.3}{}}
\citation{screen}
\@writefile{toc}{\contentsline {subsection}{\numberline {2.c}Pantalla PCD8544}{4}{subsection.2.3}\protected@file@percent }
\@writefile{lot}{\contentsline {table}{\numberline {1}{\ignorespaces Conexiones entre el módulo y el Arduino UNO a realizar para la programación de la pantalla\relax }}{4}{table.caption.4}\protected@file@percent }
\newlabel{tab:screenPinsArd}{{1}{4}{Conexiones entre el módulo y el Arduino UNO a realizar para la programación de la pantalla\relax }{table.caption.4}{}}
\citation{atmega}
\citation{usart}
\@writefile{toc}{\contentsline {subsection}{\numberline {2.d}Convertidor Analógico-Digital (ADC)}{5}{subsection.2.4}\protected@file@percent }
\@writefile{lof}{\contentsline {figure}{\numberline {3}{\ignorespaces Esquema de conversión analógico-digital de 8 niveles. Recuperado de \url  {https://en.wikipedia.org/wiki/Analog-to-digital_converter}.\relax }}{5}{figure.caption.5}\protected@file@percent }
\newlabel{fig:adc3bit}{{3}{5}{Esquema de conversión analógico-digital de 8 niveles. Recuperado de \url {https://en.wikipedia.org/wiki/Analog-to-digital_converter}.\relax }{figure.caption.5}{}}
\newlabel{eqn:adc_atmega}{{1}{5}{Convertidor Analógico-Digital (ADC)}{equation.2.1}{}}
\@writefile{toc}{\contentsline {subsection}{\numberline {2.e}Comunicación serial USART}{5}{subsection.2.5}\protected@file@percent }
\citation{Boylestad}
\citation{Bounce}
\@writefile{toc}{\contentsline {subsection}{\numberline {2.f}El diodo semiconductor}{6}{subsection.2.6}\protected@file@percent }
\newlabel{eqn:diode}{{2}{6}{El diodo semiconductor}{equation.2.2}{}}
\newlabel{eqn:threshold}{{3}{6}{El diodo semiconductor}{equation.2.3}{}}
\@writefile{toc}{\contentsline {subsection}{\numberline {2.g}Rebote de switches}{6}{subsection.2.7}\protected@file@percent }
\@writefile{toc}{\contentsline {section}{\numberline {3}Lista de componentes}{7}{section.3}\protected@file@percent }
\@writefile{lot}{\contentsline {table}{\numberline {2}{\ignorespaces Lista de componentes para realizar el diseño.\relax }}{7}{table.caption.6}\protected@file@percent }
\newlabel{tab:components}{{2}{7}{Lista de componentes para realizar el diseño.\relax }{table.caption.6}{}}
\@writefile{toc}{\contentsline {section}{\numberline {4}Diseño}{8}{section.4}\protected@file@percent }
\@writefile{lof}{\contentsline {figure}{\numberline {4}{\ignorespaces Diseño del circuito implementado. Elaboración propia.\relax }}{8}{figure.caption.7}\protected@file@percent }
\newlabel{fig:circDesign}{{4}{8}{Diseño del circuito implementado. Elaboración propia.\relax }{figure.caption.7}{}}
\@writefile{toc}{\contentsline {subsection}{\numberline {4.a}Condicionador de voltaje}{8}{subsection.4.1}\protected@file@percent }
\@writefile{lof}{\contentsline {figure}{\numberline {5}{\ignorespaces Circuito convertidor de nivel sin inversión, para conversión de 10 Vpp a 3,3 V.\relax }}{8}{figure.caption.8}\protected@file@percent }
\newlabel{fig:converter}{{5}{8}{Circuito convertidor de nivel sin inversión, para conversión de 10 Vpp a 3,3 V.\relax }{figure.caption.8}{}}
\newlabel{eqn:opampGain}{{4}{9}{Condicionador de voltaje}{equation.4.4}{}}
\newlabel{eqn:offsetGain}{{5}{9}{Condicionador de voltaje}{equation.4.5}{}}
\@writefile{lof}{\contentsline {figure}{\numberline {6}{\ignorespaces Circuito para conversión de 24 Vpp a 5 V. Elaboración propia.\relax }}{9}{figure.caption.9}\protected@file@percent }
\newlabel{fig:canal1}{{6}{9}{Circuito para conversión de 24 Vpp a 5 V. Elaboración propia.\relax }{figure.caption.9}{}}
\@writefile{toc}{\contentsline {subsection}{\numberline {4.b}Switches de selección}{9}{subsection.4.2}\protected@file@percent }
\citation{LED}
\citation{LED}
\citation{LED}
\@writefile{lof}{\contentsline {figure}{\numberline {7}{\ignorespaces Circuito para los switches de selección de modo. Elaboración propia.\relax }}{10}{figure.caption.10}\protected@file@percent }
\newlabel{fig:switch}{{7}{10}{Circuito para los switches de selección de modo. Elaboración propia.\relax }{figure.caption.10}{}}
\@writefile{toc}{\contentsline {subsection}{\numberline {4.c}LEDs de advertencia}{10}{subsection.4.3}\protected@file@percent }
\@writefile{lof}{\contentsline {figure}{\numberline {8}{\ignorespaces Circuito de diseño para la rama de 1 LED. Elaboración propia.\relax }}{10}{figure.caption.11}\protected@file@percent }
\newlabel{fig:designR_1LED}{{8}{10}{Circuito de diseño para la rama de 1 LED. Elaboración propia.\relax }{figure.caption.11}{}}
\@writefile{toc}{\contentsline {subsection}{\numberline {4.d}Diseño del software}{11}{subsection.4.4}\protected@file@percent }
\@writefile{lof}{\contentsline {figure}{\numberline {9}{\ignorespaces Diseño del programa principal para procesar las señales. Elaboración propia.\relax }}{11}{figure.caption.12}\protected@file@percent }
\newlabel{fig:mainDiag}{{9}{11}{Diseño del programa principal para procesar las señales. Elaboración propia.\relax }{figure.caption.12}{}}
\@writefile{lof}{\contentsline {figure}{\numberline {10}{\ignorespaces Diagrama de flujo para la comunicación serial con Python. Elaboración propia.\relax }}{12}{figure.caption.13}\protected@file@percent }
\newlabel{fig:usartDiag}{{10}{12}{Diagrama de flujo para la comunicación serial con Python. Elaboración propia.\relax }{figure.caption.13}{}}
\@writefile{toc}{\contentsline {section}{\numberline {5}Análisis de resultados}{13}{section.5}\protected@file@percent }
\@writefile{lof}{\contentsline {figure}{\numberline {11}{\ignorespaces Resultado del convertidor de nivel para la señal del canal 1. Elaboración propia.\relax }}{13}{figure.caption.14}\protected@file@percent }
\newlabel{fig:AC_conv}{{11}{13}{Resultado del convertidor de nivel para la señal del canal 1. Elaboración propia.\relax }{figure.caption.14}{}}
\@writefile{lof}{\contentsline {figure}{\numberline {12}{\ignorespaces Lectura de valores DC en la pantalla LCD. Elaboración propia.\relax }}{14}{figure.caption.15}\protected@file@percent }
\newlabel{fig:LCD-dc}{{12}{14}{Lectura de valores DC en la pantalla LCD. Elaboración propia.\relax }{figure.caption.15}{}}
\@writefile{lof}{\contentsline {figure}{\numberline {13}{\ignorespaces Lectura de valores AC en la pantalla LCD. Elaboración propia.\relax }}{14}{figure.caption.16}\protected@file@percent }
\newlabel{fig:LCD-ac}{{13}{14}{Lectura de valores AC en la pantalla LCD. Elaboración propia.\relax }{figure.caption.16}{}}
\@writefile{lof}{\contentsline {figure}{\numberline {14}{\ignorespaces Resultado de los LEDs de advertencia con la prueba realizada. Elaboración propia.\relax }}{14}{figure.caption.17}\protected@file@percent }
\newlabel{fig:LEDsRes}{{14}{14}{Resultado de los LEDs de advertencia con la prueba realizada. Elaboración propia.\relax }{figure.caption.17}{}}
\@writefile{lof}{\contentsline {figure}{\numberline {15}{\ignorespaces Monitor de comunicación serial con el switch abierto. Elaboración propia.\relax }}{15}{figure.caption.18}\protected@file@percent }
\newlabel{fig:monitor_switchOFF}{{15}{15}{Monitor de comunicación serial con el switch abierto. Elaboración propia.\relax }{figure.caption.18}{}}
\@writefile{lof}{\contentsline {figure}{\numberline {16}{\ignorespaces Salida de Python por la comunicación serial con el switch abierto. Elaboración propia.\relax }}{15}{figure.caption.19}\protected@file@percent }
\newlabel{fig:python_switchOFF}{{16}{15}{Salida de Python por la comunicación serial con el switch abierto. Elaboración propia.\relax }{figure.caption.19}{}}
\@writefile{lof}{\contentsline {figure}{\numberline {17}{\ignorespaces Monitor de comunicación serial con el switch cerrado. Elaboración propia.\relax }}{16}{figure.caption.20}\protected@file@percent }
\newlabel{fig:monitor_switchON}{{17}{16}{Monitor de comunicación serial con el switch cerrado. Elaboración propia.\relax }{figure.caption.20}{}}
\@writefile{lof}{\contentsline {figure}{\numberline {18}{\ignorespaces Salida de Python por la comunicación serial con el switch cerrado. Elaboración propia.\relax }}{16}{figure.caption.21}\protected@file@percent }
\newlabel{fig:python_switchON}{{18}{16}{Salida de Python por la comunicación serial con el switch cerrado. Elaboración propia.\relax }{figure.caption.21}{}}
\bibcite{atmega}{1}
\@writefile{lof}{\contentsline {figure}{\numberline {19}{\ignorespaces CSV resultante de la comunicación serial. Elaboración propia.\relax }}{17}{figure.caption.22}\protected@file@percent }
\newlabel{fig:csvResult}{{19}{17}{CSV resultante de la comunicación serial. Elaboración propia.\relax }{figure.caption.22}{}}
\@writefile{toc}{\contentsline {section}{\numberline {6}Conclusiones y recomendaciones}{17}{section.6}\protected@file@percent }
\bibcite{screen}{2}
\bibcite{ard_pinout}{3}
\bibcite{usart}{4}
\bibcite{Bounce}{5}
\bibcite{Boylestad}{6}
\bibcite{LED}{7}
